ma/estc/rimtm/SecurePubSubAC/core/RequestTraitmentEventPublishHADOOPImpl$1.class
ma/estc/rimtm/SecurePubSubAC/beans/EncreptedObject.class
ma/estc/rimtm/SecurePubSubAC/ec.class
ma/estc/rimtm/SecurePubSubAC/beans/autorisation/DetailResponceAutorisationSignierSK.class
ma/estc/rimtm/SecurePubSubAC/beans/MessageResponce.class
keyStore/qlq.class
ma/estc/rimtm/SecurePubSubAC/core/RequestTraitmentEventPublishImpl.class
ma/estc/rimtm/SecurePubSubAC/beans/autorisation/DetailResponceAutorisationCryptedSK.class
ma/estc/rimtm/SecurePubSubAC/core/OnMessageArrivedControle.class
ma/estc/rimtm/SecurePubSubAC/core/OnMessageArrivedControle$1.class
ma/estc/rimtm/SecurePubSubAC/exception/SecurePubSubException.class
ma/estc/rimtm/SecurePubSubAC/beans/ResponceDemandePK.class
ma/estc/rimtm/SecurePubSubAC/core/OnMessageArrivedImpl.class
ma/estc/rimtm/SecurePubSubAC/User2G2.class
ma/estc/rimtm/SecurePubSubAC/xacml/OntologiePIPEngine.class
ma/estc/rimtm/SecurePubSubAC/pubsub/mqtt/MqttPublishSubcripeImpl$2.class
ma/estc/rimtm/SecurePubSubAC/beans/MessageEncrepted.class
ma/estc/rimtm/SecurePubSubAC/Main.class
keyStore/Main.class
ma/estc/rimtm/SecurePubSubAC/core/OnMessageArrived.class
ma/estc/rimtm/SecurePubSubAC/core/util/Utils.class
ma/estc/rimtm/SecurePubSubAC/xacml/XacmlPEP.class
ma/estc/rimtm/SecurePubSubAC/beans/DemandeSK.class
ma/estc/rimtm/SecurePubSubAC/pubsub/mqtt/UtilConstantes.class
ma/estc/rimtm/SecurePubSubAC/beans/MessageSimple.class
ma/estc/rimtm/SecurePubSubAC/core/KerberosHttpClient.class
ma/estc/rimtm/SecurePubSubAC/beans/DetailMessage.class
ma/estc/rimtm/SecurePubSubAC/beans/autorisation/DemandeAutorisationSK.class
ma/estc/rimtm/SecurePubSubAC/core/util/Constantes.class
ma/estc/rimtm/SecurePubSubAC/beans/DemandePK.class
ma/estc/rimtm/SecurePubSubAC/User1G1.class
ma/estc/rimtm/SecurePubSubAC/beans/TestMessage.class
ma/estc/rimtm/SecurePubSubAC/core/RequestTraitmentEventPublishHADOOPImpl.class
ma/estc/rimtm/SecurePubSubAC/beans/autorisation/DetailAutorisationSK.class
ma/estc/rimtm/SecurePubSubAC/beans/Message.class
ma/estc/rimtm/SecurePubSubAC/pubsub/mqtt/MqttPublishSubcripeImpl.class
ma/estc/rimtm/SecurePubSubAC/beans/DetailDemandeSK.class
ma/estc/rimtm/SecurePubSubAC/core/RequesTraitement.class
ma/estc/rimtm/SecurePubSubAC/beans/autorisation/DetailResponceAutorisationSK.class
ma/estc/rimtm/SecurePubSubAC/core/util/crypto/UtilCrypto.class
ma/estc/rimtm/SecurePubSubAC/pubsub/mqtt/MqttPublishSubcripeImpl$1.class
ma/estc/rimtm/SecurePubSubAC/core/RequestTraitmentEvent.class
ma/estc/rimtm/SecurePubSubAC/xacml/DOMRequestAC.class
ma/estc/rimtm/SecurePubSubAC/beans/autorisation/ResponceDemandeAutorisation.class
ma/estc/rimtm/SecurePubSubAC/beans/ResponceDemandeSK.class
ma/estc/rimtm/SecurePubSubAC/pubsub/PublishSubcripe.class
